Taller 2 HTML
…
  if (!is.null(out)) out$serial <- serial_est[i]
  if (is.list(out)) out <- out |> unnest('value')
  return(out)
})

data_final<- do.call(rbind,r)
data_final

# A tibble: 11,244 x 4
   timestamp        value     z serial  
   <chr>            <dbl> <dbl> <chr>   
 1 2022-09-01 00:00  26.6    90 z6-08661
 2 2022-09-01 01:00  26.6    90 z6-08661
 3 2022-09-01 02:00  26.6    90 z6-08661
 4 2022-09-01 03:00  26.6    90 z6-08661
 5 2022-09-01 04:00  26.6    90 z6-08661
 6 2022-09-01 05:00  26.6    90 z6-08661
 7 2022-09-01 06:00  26.6    90 z6-08661
 8 2022-09-01 07:00  26.6    90 z6-08661
 9 2022-09-01 08:00  26.5    90 z6-08661
10 2022-09-01 09:00  26.5    90 z6-08661
# ... with 11,234 more rows

names <- c('Fecha_Hora', 'Valor', 'Profundidad', 'Serial')
names -> colnames(data_final)

data_final <- tibble(data_final)

2. El set de datos obtenido en el punto anterior lo debe ordenar de mayor a menor utilizando la función dplyr::arrange.

data_final_ordenada <- arrange(data_final, desc(Valor))
data_final_ordenada

# A tibble: 11,244 x 4
   Fecha_Hora       Valor Profundidad Serial  
   <chr>            <dbl>       <dbl> <chr>   
 1 2022-09-02 08:00  44.4          30 z6-10298
 2 2022-09-01 12:00  44.4          30 z6-08770
 3 2022-09-02 03:00  44.3          30 z6-10298
 4 2022-09-02 07:00  44.3          30 z6-10298
 5 2022-09-02 09:00  44.3          30 z6-10298
 6 2022-09-02 10:00  44.3          30 z6-10298
 7 2022-09-02 11:00  44.3          30 z6-10298
 8 2022-09-02 12:00  44.3          30 z6-10298
 9 2022-09-01 11:00  44.3          30 z6-08770
10 2022-09-02 04:00  44.3          30 z6-10298
# ... with 11,234 more rows

3. Utilice la función tidyr::separate para crear una columna de fecha y otra de hora, a partir de la columnas fecha_hora.

vec <- c('Fecha', 'Hora')
data_final_separada <- separate(data_final_ordenada, 'Fecha_Hora', vec, sep=' ')
data_final_separada

# A tibble: 11,244 x 5
   Fecha      Hora  Valor Profundidad Serial  
   <chr>      <chr> <dbl>       <dbl> <chr>   
 1 2022-09-02 08:00  44.4          30 z6-10298
 2 2022-09-01 12:00  44.4          30 z6-08770
 3 2022-09-02 03:00  44.3          30 z6-10298
 4 2022-09-02 07:00  44.3          30 z6-10298
 5 2022-09-02 09:00  44.3          30 z6-10298
 6 2022-09-02 10:00  44.3          30 z6-10298
 7 2022-09-02 11:00  44.3          30 z6-10298
 8 2022-09-02 12:00  44.3          30 z6-10298
 9 2022-09-01 11:00  44.3          30 z6-08770
10 2022-09-02 04:00  44.3          30 z6-10298
# ... with 11,234 more rows

4. Haga un análisis de los valores faltantes (NAs) explicitos e implicitos. Utilice el paquete {tidyr}. Lo importante es saber si se encuentran valores para todas las fechas y en caso que no, saber cuantos datos faltan.

nas <- data_final |> 
  complete(Fecha_Hora, Serial, fill = list(valores = NA))
nas

# A tibble: 20,964 x 4
   Fecha_Hora       Serial   Valor Profundidad
   <chr>            <chr>    <dbl>       <dbl>
 1 2022-09-01 00:00 z6-08650  32.4          90
 2 2022-09-01 00:00 z6-08650  29.6          60
 3 2022-09-01 00:00 z6-08650  28.4          30
 4 2022-09-01 00:00 z6-08652  25.8          90
 5 2022-09-01 00:00 z6-08652  27.4          60
 6 2022-09-01 00:00 z6-08652  32.5          30
 7 2022-09-01 00:00 z6-08654  23.9          90
 8 2022-09-01 00:00 z6-08654  25.4          60
 9 2022-09-01 00:00 z6-08654  18.4          30
10 2022-09-01 00:00 z6-08655  31.1          90
# ... with 20,954 more rows
