Taller 3
…
Los datos fueron Filtrados al inicio del taller.

2. Filtrar los datos para los meses de Mayo a Julio en las estaciones asignadas.

mayojulio <- api_agromet |> 
  mutate(fecha_hora = as.Date(api_agromet$fecha_hora), month = month(fecha_hora)) |> 
  filter(month >= 05 & month <= 08)

3. Tome una muestra de 1000 filas de forma aleatoria sin reemplazo.

api_agromet |> 
  slice_sample(n = 1000)

# A tibble: 1,000 x 13
   station~1 fecha_hora          temp_~2 preci~3 humed~4 presi~5 radia~6 veloc~7
       <dbl> <dttm>                <dbl>   <dbl>   <dbl>   <dbl>   <dbl>   <dbl>
 1       582 2021-11-22 03:00:00    13         0    82      992      0       1.5
 2       137 2021-03-24 16:00:00    NA        NA    NA       NA     NA      NA  
 3       353 2021-11-14 08:00:00    19.6       0    23.6    887.   618.      1.4
 4       310 2021-12-22 06:00:00    16.1       0    75      976.    50.4     0.2
 5       324 2021-12-25 03:00:00    12.1       0    88.6      0      0       0.2
 6       245 2021-10-15 09:00:00    NA        NA    NA       NA     NA      NA  
 7       164 2021-04-05 04:00:00    14         0    68.2    994      0       1.5
 8        24 2021-07-19 07:00:00     2.8       0    37.8    928.     9       0  
 9       105 2021-02-01 23:00:00    14         0    89.3   1013.     0       0.7
10        44 2021-09-06 20:00:00    10.1       0    79.2   1026.     0       0  
# ... with 990 more rows, 5 more variables: temp_minima <dbl>,
#   temp_maxima <dbl>, direccion_del_viento <dbl>, grados_dia <dbl>,
#   horas_frio <dbl>, and abbreviated variable names 1: station_id,
#   2: temp_promedio_aire, 3: precipitacion_horaria, 4: humed_rel_promedio,
#   5: presion_atmosferica, 6: radiacion_solar_max, 7: veloc_max_viento

4. Para cada estación seleccione los valores máximos de precipitación horaria.

api_agromet |> 
  group_by(station_id) |> 
  slice_max(precipitacion_horaria, n= 5)

# A tibble: 46,025 x 13
# Groups:   station_id [129]
   station~1 fecha_hora          temp_~2 preci~3 humed~4 presi~5 radia~6 veloc~7
       <dbl> <dttm>                <dbl>   <dbl>   <dbl>   <dbl>   <dbl>   <dbl>
 1         1 2021-01-01 03:00:00    20.4       0    66     1012        0     0  
 2         1 2021-01-01 04:00:00    20.4       0    66     1012.       0     0  
 3         1 2021-01-01 05:00:00    20.4       0    66     1012.       0     0  
 4         1 2021-01-01 06:00:00    20.4       0    66     1013        0     0  
 5         1 2021-01-01 08:00:00    22.8       0    59     1014.     299     0.4
 6         1 2021-01-01 09:00:00    24         0    56.2   1013.     740     3.1
 7         1 2021-01-01 10:00:00    25.2       0    52.8   1013.     867     3.6
 8         1 2021-01-01 11:00:00    25.8       0    49.8   1012.     932     3.1
 9         1 2021-01-01 12:00:00    26.9       0    47.8   1012      991     3.1
10         1 2021-01-01 13:00:00    27.6       0    45.5   1012.     991     2.2
# ... with 46,015 more rows, 5 more variables: temp_minima <dbl>,
#   temp_maxima <dbl>, direccion_del_viento <dbl>, grados_dia <dbl>,
#   horas_frio <dbl>, and abbreviated variable names 1: station_id,
#   2: temp_promedio_aire, 3: precipitacion_horaria, 4: humed_rel_promedio,
#   5: presion_atmosferica, 6: radiacion_solar_max, 7: veloc_max_viento
…
# A tibble: 5 x 1
  station_id
       <dbl>
1        182
2        179
3        105
4        182
5         19

6. Seleccione las columnas que tienen temperatura.

api_agromet |>
  select(station_id, fecha_hora, contains('temp'))

# A tibble: 1,188,096 x 5
   station_id fecha_hora          temp_promedio_aire temp_minima temp_maxima
        <dbl> <dttm>                           <dbl>       <dbl>       <dbl>
 1          1 2021-01-01 03:00:00               20.4        20.4        20.4
 2          1 2021-01-01 04:00:00               20.4        20.4        20.4
 3          1 2021-01-01 05:00:00               20.4        20.4        20.4
 4          1 2021-01-01 06:00:00               20.4        20.4        20.4
 5          1 2021-01-01 07:00:00               NA          NA          NA  
 6          1 2021-01-01 08:00:00               22.8        22.2        23.1
 7          1 2021-01-01 09:00:00               24          23.2        24.6
 8          1 2021-01-01 10:00:00               25.2        24.7        25.6
 9          1 2021-01-01 11:00:00               25.8        25.6        25.9
10          1 2021-01-01 12:00:00               26.9        26.7        27.3
# ... with 1,188,086 more rows
…
Rows: 1,188,096
Columns: 1
$ fecha_hora <dttm> 2021-01-01 03:00:00, 2021-01-01 04:00:00, 2021-01-01 05:00~

Clase 10

Dplyr II

1. Agrupe los datos de las climáticos de agromet por estación (group_by)

api_agromet |> 
  group_by(station_id)

# A tibble: 1,188,096 x 13
# Groups:   station_id [136]
   station~1 fecha_hora          temp_~2 preci~3 humed~4 presi~5 radia~6 veloc~7
       <dbl> <dttm>                <dbl>   <dbl>   <dbl>   <dbl>   <dbl>   <dbl>
 1         1 2021-01-01 03:00:00    20.4       0    66     1012        0     0  
 2         1 2021-01-01 04:00:00    20.4       0    66     1012.       0     0  
 3         1 2021-01-01 05:00:00    20.4       0    66     1012.       0     0  
 4         1 2021-01-01 06:00:00    20.4       0    66     1013        0     0  
 5         1 2021-01-01 07:00:00    NA        NA    NA       NA       NA    NA  
 6         1 2021-01-01 08:00:00    22.8       0    59     1014.     299     0.4
 7         1 2021-01-01 09:00:00    24         0    56.2   1013.     740     3.1
 8         1 2021-01-01 10:00:00    25.2       0    52.8   1013.     867     3.6
 9         1 2021-01-01 11:00:00    25.8       0    49.8   1012.     932     3.1
10         1 2021-01-01 12:00:00    26.9       0    47.8   1012      991     3.1
# ... with 1,188,086 more rows, 5 more variables: temp_minima <dbl>,
#   temp_maxima <dbl>, direccion_del_viento <dbl>, grados_dia <dbl>,
#   horas_frio <dbl>, and abbreviated variable names 1: station_id,
#   2: temp_promedio_aire, 3: precipitacion_horaria, 4: humed_rel_promedio,
#   5: presion_atmosferica, 6: radiacion_solar_max, 7: veloc_max_viento

2. Haga un sumarizado de promedio mensual de las variables de temperatura para cada estación (group_by, summarize y across).

api_agromet |> 
  group_by(station_id) |> 
  summarise(across(contains('Temp'), mean, na.rm = TRUE))

# A tibble: 136 x 4
   station_id temp_promedio_aire temp_minima temp_maxima
        <dbl>              <dbl>       <dbl>       <dbl>
 1          1               19.5        19.3        19.7
 2          3               20.5        19.6        21.3
 3          5              NaN         NaN         NaN  
 4         16               17.5        16.9        18.2
 5         18               14.7        14.3        15.2
 6         19               16.1        15.5        16.6
 7         21               14.6        14.0        15.2
 8         24               16.2        15.4        16.9
 9         27               15.5        14.9        16.1
10         28               15.9        15.1        16.7
# ... with 126 more rows

3. Renombre y reordene las variables como temp_prom, temp_max y Temp_min (rename_with y `relocate``)

data_agromet <- api_agromet |> 
  rename_with(contains('temp'),.fn = \(x) substr(x, start = 1, stop = 8))

data_agromet |> 
  relocate(temp_max, .after = temp_pro) |> 
  relocate(temp_min, .after = last_col())

# A tibble: 1,188,096 x 13
   station~1 fecha_hora          temp_~2 temp_~3 preci~4 humed~5 presi~6 radia~7
       <dbl> <dttm>                <dbl>   <dbl>   <dbl>   <dbl>   <dbl>   <dbl>
 1         1 2021-01-01 03:00:00    20.4    20.4       0    66     1012        0
 2         1 2021-01-01 04:00:00    20.4    20.4       0    66     1012.       0
 3         1 2021-01-01 05:00:00    20.4    20.4       0    66     1012.       0
 4         1 2021-01-01 06:00:00    20.4    20.4       0    66     1013        0
 5         1 2021-01-01 07:00:00    NA      NA        NA    NA       NA       NA
 6         1 2021-01-01 08:00:00    22.8    23.1       0    59     1014.     299
 7         1 2021-01-01 09:00:00    24      24.6       0    56.2   1013.     740
 8         1 2021-01-01 10:00:00    25.2    25.6       0    52.8   1013.     867
 9         1 2021-01-01 11:00:00    25.8    25.9       0    49.8   1012.     932
10         1 2021-01-01 12:00:00    26.9    27.3       0    47.8   1012      991
# ... with 1,188,086 more rows, 5 more variables: veloc_max_viento <dbl>,
#   direccion_del_viento <dbl>, grados_dia <dbl>, horas_frio <dbl>,
#   temp_min <dbl>, and abbreviated variable names 1: station_id, 2: temp_pro,
#   3: temp_max, 4: precipitacion_horaria, 5: humed_rel_promedio,
#   6: presion_atmosferica, 7: radiacion_solar_max

4. Cree las columnas var_temp y temp, en formato largo que contenga las variables de temp_prom, temp_max y Temp_min y sus valores. (pivot_longer)

data_agromet |> 
  pivot_longer(c(3, 9, 10), names_to = 'var_temp', values_to = 'temp',)

# A tibble: 3,564,288 x 12
   station~1 fecha_hora          preci~2 humed~3 presi~4 radia~5 veloc~6 direc~7
       <dbl> <dttm>                <dbl>   <dbl>   <dbl>   <dbl>   <dbl>   <dbl>
 1         1 2021-01-01 03:00:00       0      66   1012        0       0     250
 2         1 2021-01-01 03:00:00       0      66   1012        0       0     250
 3         1 2021-01-01 03:00:00       0      66   1012        0       0     250
 4         1 2021-01-01 04:00:00       0      66   1012.       0       0     250
 5         1 2021-01-01 04:00:00       0      66   1012.       0       0     250
 6         1 2021-01-01 04:00:00       0      66   1012.       0       0     250
 7         1 2021-01-01 05:00:00       0      66   1012.       0       0     250
 8         1 2021-01-01 05:00:00       0      66   1012.       0       0     250
 9         1 2021-01-01 05:00:00       0      66   1012.       0       0     250
10         1 2021-01-01 06:00:00       0      66   1013        0       0     250
# ... with 3,564,278 more rows, 4 more variables: grados_dia <dbl>,
#   horas_frio <dbl>, var_temp <chr>, temp <dbl>, and abbreviated variable
#   names 1: station_id, 2: precipitacion_horaria, 3: humed_rel_promedio,
#   4: presion_atmosferica, 5: radiacion_solar_max, 6: veloc_max_viento,
#   7: direccion_del_viento

5. Ordene los datos anteriores de mayor a menor.

data_agromet |> 
  pivot_longer(c(3, 9, 10), names_to = 'var_temp', values_to = 'temp',) |> 
  arrange(desc(temp))

# A tibble: 3,564,288 x 12
   station~1 fecha_hora          preci~2 humed~3 presi~4 radia~5 veloc~6 direc~7
       <dbl> <dttm>                <dbl>   <dbl>   <dbl>   <dbl>   <dbl>   <dbl>
 1       369 2021-01-30 13:00:00       0    75.4     997   1083      3.6    117.
 2       369 2021-01-30 14:00:00       0    78.1     997    993      4.1    118.
 3       369 2021-01-30 13:00:00       0    75.4     997   1083      3.6    117.
 4       369 2021-01-30 19:00:00       0    76.4     997    194.     2.8    121.
 5       369 2021-01-30 11:00:00       0    80.8     997    911      2.5    131.
 6       369 2021-01-30 14:00:00       0    78.1     997    993      4.1    118.
 7       369 2021-01-30 10:00:00       0    79.4     997    794.     1.9    138.
 8       369 2021-01-30 13:00:00       0    75.4     997   1083      3.6    117.
 9       369 2021-01-30 19:00:00       0    76.4     997    194.     2.8    121.
10       369 2021-01-30 10:00:00       0    79.4     997    794.     1.9    138.
# ... with 3,564,278 more rows, 4 more variables: grados_dia <dbl>,
#   horas_frio <dbl>, var_temp <chr>, temp <dbl>, and abbreviated variable
#   names 1: station_id, 2: precipitacion_horaria, 3: humed_rel_promedio,
#   4: presion_atmosferica, 5: radiacion_solar_max, 6: veloc_max_viento,
#   7: direccion_del_viento

6. Vuelva a formato ancho los datos del punto anterior.

data_agromet |> 
  pivot_longer(c(3, 9, 10), names_to = 'var_temp', values_to = 'temp',) |> 
  arrange(desc(temp)) |> 
  pivot_wider(names_from = var_temp, values_from = temp)

# A tibble: 1,188,096 x 13
   station~1 fecha_hora          preci~2 humed~3 presi~4 radia~5 veloc~6 direc~7
       <dbl> <dttm>                <dbl>   <dbl>   <dbl>   <dbl>   <dbl>   <dbl>
 1       369 2021-01-30 13:00:00       0    75.4    997   1083       3.6    117.
 2       369 2021-01-30 14:00:00       0    78.1    997    993       4.1    118.
 3       369 2021-01-30 19:00:00       0    76.4    997    194.      2.8    121.
 4       369 2021-01-30 11:00:00       0    80.8    997    911       2.5    131.
 5       369 2021-01-30 10:00:00       0    79.4    997    794.      1.9    138.
 6       369 2021-01-30 09:00:00       0    77.2    997    613.      1.6    138.
 7       369 2021-01-31 16:00:00       0    80.2    998    829       4.6    114.
 8       369 2021-01-30 15:00:00       0    79.3    997    885       3.9    119.
 9       369 2021-01-30 20:00:00       0    79.4    997     15.4     2.2    121 
10       369 2021-01-30 12:00:00       0    81.5    997.   640.      2.7    118.
# ... with 1,188,086 more rows, 5 more variables: grados_dia <dbl>,
#   horas_frio <dbl>, temp_max <dbl>, temp_pro <dbl>, temp_min <dbl>, and
#   abbreviated variable names 1: station_id, 2: precipitacion_horaria,
#   3: humed_rel_promedio, 4: presion_atmosferica, 5: radiacion_solar_max,
#   6: veloc_max_viento, 7: direccion_del_viento

7. Caclule cuantos datos no faltantes (!is.na) tiene cada estacion para cada una de las variables.

data_agromet |> 
  select(station_id, contains('temp')) |> 
  pivot_longer(2:4, names_to = 'var_temp', values_to = 'temp',) |> 
  group_by(station_id, var_temp) |> 
  summarise(NAs = sum(!is.na(temp)))

`summarise()` has grouped output by 'station_id'. You can override using the
`.groups` argument.

# A tibble: 408 x 3
# Groups:   station_id [136]
   station_id var_temp   NAs
        <dbl> <chr>    <int>
 1          1 temp_max  4902
 2          1 temp_min  4902
 3          1 temp_pro  4902
 4          3 temp_max  8214
 5          3 temp_min  8214
 6          3 temp_pro  8214
 7          5 temp_max     0
 8          5 temp_min     0
 9          5 temp_pro     0
10         16 temp_max  3979
# ... with 398 more rows
…
2. Para cada estacion calcule el valor de la mediana.

med_agromet <- api_agromet |> 
  group_by(station_id) |> 
  summarise(across(contains('temp'),\(x) median(x, na.rm = TRUE), .names = "{.col}_mediana"))

3. Filtre las estaciones cuyo valor de temperatura promedio es mayor que la temperatura mediana.

prom_agromet |> 
  filter(temp_promedio_aire_prom > med_agromet$temp_promedio_aire_mediana)

# A tibble: 123 x 4
   station_id temp_promedio_aire_prom temp_minima_prom temp_maxima_prom
        <dbl>                   <dbl>            <dbl>            <dbl>
 1          1                    19.5             19.3             19.7
 2          3                    20.5             19.6             21.3
 3         16                    17.5             16.9             18.2
 4         18                    14.7             14.3             15.2
 5         19                    16.1             15.5             16.6
 6         21                    14.6             14.0             15.2
 7         24                    16.2             15.4             16.9
 8         27                    15.5             14.9             16.1
 9         28                    15.9             15.1             16.7
10         29                    14.9             14.4             15.5
# ... with 113 more rows

4. Verifique que los nombres de la estaciones son únicos (distinct).

prom_agromet |>
  distinct(station_id)

# A tibble: 136 x 1
   station_id
        <dbl>
 1          1
 2          3
 3          5
 4         16
 5         18
 6         19
 7         21
 8         24
 9         27
10         28
# ... with 126 more rows
…
7. Cree un data.frame con datos anidados con los valores de promedios de temperatura diario, por estación.

prom_agromet |> 
  group_by(station_id) |> 
  nest()

# A tibble: 136 x 2
# Groups:   station_id [136]
   station_id data            
        <dbl> <list>          
 1          1 <tibble [1 x 3]>
 2          3 <tibble [1 x 3]>
 3          5 <tibble [1 x 3]>
 4         16 <tibble [1 x 3]>
 5         18 <tibble [1 x 3]>
 6         19 <tibble [1 x 3]>
 7         21 <tibble [1 x 3]>
 8         24 <tibble [1 x 3]>
 9         27 <tibble [1 x 3]>
10         28 <tibble [1 x 3]>
# ... with 126 more rows
