Taller 4
…
Transforme la función en una función anónima (lambda) y úsela con mutate con los datos iris

iris |>
  group_by(Species) |>
  mutate(across(where(is.numeric),.fns=\(x,y) x/sqrt(mean(y)), y = iris$Sepal.Width))

# A tibble: 150 × 5
# Groups:   Species [3]
   Sepal.Length Sepal.Width Petal.Length Petal.Width Species
          <dbl>       <dbl>        <dbl>       <dbl> <fct>  
 1         2.92        2.00        0.801      0.114  setosa 
 2         2.80        1.72        0.801      0.114  setosa 
 3         2.69        1.83        0.743      0.114  setosa 
 4         2.63        1.77        0.858      0.114  setosa 
 5         2.86        2.06        0.801      0.114  setosa 
 6         3.09        2.23        0.972      0.229  setosa 
 7         2.63        1.94        0.801      0.172  setosa 
 8         2.86        1.94        0.858      0.114  setosa 
 9         2.52        1.66        0.801      0.114  setosa 
10         2.80        1.77        0.858      0.0572 setosa 
# … with 140 more rows
…
Utilice across y mutate junto con una función anónima (lambda)

iris |> 
  group_by(Species) |>
  mutate(across(where(is.numeric),.fns = \(x) x/rqmean))

# A tibble: 150 × 5
# Groups:   Species [3]
   Sepal.Length Sepal.Width Petal.Length Petal.Width Species
          <dbl>       <dbl>        <dbl>       <dbl> <fct>  
 1         2.12        1.45        0.581      0.0829 setosa 
 2         2.03        1.24        0.581      0.0829 setosa 
 3         1.95        1.33        0.539      0.0829 setosa 
 4         1.91        1.29        0.622      0.0829 setosa 
 5         2.07        1.49        0.581      0.0829 setosa 
 6         2.24        1.62        0.705      0.166  setosa 
 7         1.91        1.41        0.581      0.124  setosa 
 8         2.07        1.41        0.622      0.0829 setosa 
 9         1.82        1.20        0.581      0.0829 setosa 
10         2.03        1.29        0.622      0.0415 setosa 
# … with 140 more rows

Utilice across y mutate junto con una función nombrada (lambda)

rqmeanfun <- function(x,y){group_by(y) |>
    mutate(across(where(is.numeric))) |> 
    mutate(rqmean_ = x/rqmean)}

rqmeanfun(iris$Sepal.Width, iris[iris$Species,])

# A tibble: 150 × 6
   Sepal.Length Sepal.Width Petal.Length Petal.Width Species rqmean_
          <dbl>       <dbl>        <dbl>       <dbl> <fct>     <dbl>
 1          5.1         3.5          1.4         0.2 setosa     1.45
 2          5.1         3.5          1.4         0.2 setosa     1.24
 3          5.1         3.5          1.4         0.2 setosa     1.33
 4          5.1         3.5          1.4         0.2 setosa     1.29
 5          5.1         3.5          1.4         0.2 setosa     1.49
 6          5.1         3.5          1.4         0.2 setosa     1.62
 7          5.1         3.5          1.4         0.2 setosa     1.41
 8          5.1         3.5          1.4         0.2 setosa     1.41
 9          5.1         3.5          1.4         0.2 setosa     1.20
10          5.1         3.5          1.4         0.2 setosa     1.29
# … with 140 more rows

rqmeanfun_<- function(x,y,z){
  group_by(z) |>
  mutate(across(where(is.numeric))) |> 
  mutate(rqmean_ = x/sqrt(mean(y)))}

rqmeanfun_(iris$Sepal.Length, iris$Sepal.Width, iris[iris$Species,])

# A tibble: 150 × 6
   Sepal.Length Sepal.Width Petal.Length Petal.Width Species rqmean_
          <dbl>       <dbl>        <dbl>       <dbl> <fct>     <dbl>
 1          5.1         3.5          1.4         0.2 setosa     2.92
 2          5.1         3.5          1.4         0.2 setosa     2.80
 3          5.1         3.5          1.4         0.2 setosa     2.69
 4          5.1         3.5          1.4         0.2 setosa     2.63
 5          5.1         3.5          1.4         0.2 setosa     2.86
 6          5.1         3.5          1.4         0.2 setosa     3.09
 7          5.1         3.5          1.4         0.2 setosa     2.63
 8          5.1         3.5          1.4         0.2 setosa     2.86
 9          5.1         3.5          1.4         0.2 setosa     2.52
10          5.1         3.5          1.4         0.2 setosa     2.80
# … with 140 more rows
…
Transforme la función en una función anónima (lambda) y úsela con summarize con los datos iris

iris |> 
  group_by(Species) |>
  mutate(across(where(is.numeric),.fns = \(x) cut(x, 3, labels = c('Bajo', 'Medio', 'Alto'))))

# A tibble: 150 × 5
# Groups:   Species [3]
   Sepal.Length Sepal.Width Petal.Length Petal.Width Species
   <fct>        <fct>       <fct>        <fct>       <fct>  
 1 Medio        Medio       Medio        Bajo        setosa 
 2 Medio        Bajo        Medio        Bajo        setosa 
 3 Bajo         Medio       Bajo         Bajo        setosa 
 4 Bajo         Medio       Medio        Bajo        setosa 
 5 Medio        Medio       Medio        Bajo        setosa 
 6 Alto         Alto        Alto         Medio       setosa 
 7 Bajo         Medio       Medio        Medio       setosa 
 8 Medio        Medio       Medio        Bajo        setosa 
 9 Bajo         Bajo        Medio        Bajo        setosa 
10 Medio        Medio       Medio        Bajo        setosa 
# … with 140 more rows
…
