Taller 1 - Minería de Datos
…
#agromet_agr$precipitacion_diaria <- pdiaria

4. Creacion de data frame tipo tibble con variable de precipitacion acumulada diaria y temperaturas.

Importamos la librería tibble y luego creamos un dataframe tipo tibble con la variable de precipitación acumulada diaria y la suma de las temperaturas.

library(tibble)

Warning: package 'tibble' was built under R version 4.1.3

tibble_api_agromet <- as_tibble(agromet_agr)
tibble_api_agromet

# A tibble: 1,188,096 x 5
   station_id precipitacion_horaria temp_minima temp_maxima dia       
        <dbl>                 <dbl>       <dbl>       <dbl> <chr>     
 1          1                     0        20.4        20.4 01-01-2021
 2          1                     0        20.4        20.4 01-01-2021
 3          1                     0        20.4        20.4 01-01-2021
 4          1                     0        20.4        20.4 01-01-2021
 5          1                    NA        NA          NA   01-01-2021
 6          1                     0        22.2        23.1 01-01-2021
 7          1                     0        23.2        24.6 01-01-2021
 8          1                     0        24.7        25.6 01-01-2021
 9          1                     0        25.6        25.9 01-01-2021
10          1                     0        26.7        27.3 01-01-2021
# ... with 1,188,086 more rows
…
